; Engine configuration file.
; It's best edited using the editor UI and not directly,
; since the parameters that go here are not all obvious.
;
; Format:
;   [section] ; section goes between []
;   param=value ; assign values to parameters

config_version=4

_global_script_classes=[ {
"base": "",
"class": "GitAPI",
"language": "NativeScript",
"path": "res://git_api.gdns"
} ]
_global_script_class_icons={
"GitAPI": ""
}

[application]

config/name="Escape the Maze"
run/main_scene="res://ui/StartScreen.tscn"
config/icon="res://icon.png"

[autoload]

Global="*res://Global.gd"

[display]

window/stretch/mode="viewport"
window/stretch/aspect="keep"

[gdnative]

singletons=[ "res://git_api.gdnlib" ]

[input]

left={
"deadzone": 0.5,
"events": [ Object(InputEventKey,"resource_local_to_scene":false,"resource_name":"","device":0,"alt":false,"shift":false,"control":false,"meta":false,"command":false,"pressed":false,"scancode":16777231,"unicode":0,"echo":false,"script":null)
 ]
}
right={
"deadzone": 0.5,
"events": [ Object(InputEventKey,"resource_local_to_scene":false,"resource_name":"","device":0,"alt":false,"shift":false,"control":false,"meta":false,"command":false,"pressed":false,"scancode":16777233,"unicode":0,"echo":false,"script":null)
 ]
}
up={
"deadzone": 0.5,
"events": [ Object(InputEventKey,"resource_local_to_scene":false,"resource_name":"","device":0,"alt":false,"shift":false,"control":false,"meta":false,"command":false,"pressed":false,"scancode":16777232,"unicode":0,"echo":false,"script":null)
 ]
}
down={
"deadzone": 0.5,
"events": [ Object(InputEventKey,"resource_local_to_scene":false,"resource_name":"","device":0,"alt":false,"shift":false,"control":false,"meta":false,"command":false,"pressed":false,"scancode":16777234,"unicode":0,"echo":false,"script":null)
 ]
}

[layer_names]

2d_physics/layer_1="walls"
2d_physics/layer_2="player"
2d_physics/layer_3="enemies"
2d_physics/layer_4="items"

[rendering]

quality/2d/use_pixel_snap=true
environment/default_environment="res://default_env.tres"
