[gd_scene load_steps=4 format=2]

[ext_resource path="res://assets/Unique.ttf" type="DynamicFontData" id=1]
[ext_resource path="res://ui/EndScreen.gd" type="Script" id=2]

[sub_resource type="DynamicFont" id=1]
size = 148
font_data = ExtResource( 1 )

[node name="EndScreen" type="Control"]
anchor_right = 1.0
anchor_bottom = 1.0
script = ExtResource( 2 )
__meta__ = {
"_edit_group_": true,
"_edit_use_anchors_": false
}

[node name="Label" type="Label" parent="."]
anchor_right = 1.0
anchor_bottom = 1.0
custom_fonts/font = SubResource( 1 )
custom_colors/font_color_shadow = Color( 0, 0, 0, 1 )
custom_constants/shadow_offset_x = 3
custom_constants/shadow_offset_y = 3
text = "Game Over"
align = 1
valign = 1
__meta__ = {
"_edit_use_anchors_": false
}

[node name="Timer" type="Timer" parent="."]
wait_time = 3.0
one_shot = true
autostart = true
[connection signal="timeout" from="Timer" to="." method="_on_Timer_timeout"]
