[gd_scene load_steps=5 format=2]

[ext_resource path="res://pickups/Pickup.gd" type="Script" id=1]
[ext_resource path="res://assets/audio/coin_pickup.ogg" type="AudioStream" id=2]
[ext_resource path="res://assets/audio/key_grabbed.ogg" type="AudioStream" id=3]

[sub_resource type="RectangleShape2D" id=1]
extents = Vector2( 32, 32 )

[node name="Pickup" type="Area2D"]
collision_layer = 8
collision_mask = 2
script = ExtResource( 1 )

[node name="Sprite" type="Sprite" parent="."]

[node name="CollisionShape2D" type="CollisionShape2D" parent="."]
shape = SubResource( 1 )

[node name="Tween" type="Tween" parent="."]

[node name="KeyPickup" type="AudioStreamPlayer" parent="."]
stream = ExtResource( 3 )
volume_db = -10.0

[node name="CoinPickup" type="AudioStreamPlayer" parent="."]
stream = ExtResource( 2 )
volume_db = -10.0
[connection signal="tween_completed" from="Tween" to="." method="_on_Tween_tween_completed"]
